<svg xmlns="http://www.w3.org/2000/svg" width="8.656" height="13.597" viewBox="0 0 8.656 13.597">
  <path id="Path_614" data-name="Path 614" d="M0,0,6.068,6.508,12.134,0" transform="translate(0.682 12.866) rotate(-90)" fill="none" stroke="#58595b" stroke-miterlimit="10" stroke-width="2" fill-rule="evenodd"/>
</svg>
