<svg id="Instagram" xmlns="http://www.w3.org/2000/svg" width="18.016" height="18.016" viewBox="0 0 18.016 18.016">
  <path id="Path_3" data-name="Path 3" d="M9.008,1.6a27.62,27.62,0,0,1,3.6.1,4.642,4.642,0,0,1,1.7.3,3.515,3.515,0,0,1,1.7,1.7,4.642,4.642,0,0,1,.3,1.7c0,.9.1,1.2.1,3.6a27.62,27.62,0,0,1-.1,3.6,4.642,4.642,0,0,1-.3,1.7,3.515,3.515,0,0,1-1.7,1.7,4.642,4.642,0,0,1-1.7.3c-.9,0-1.2.1-3.6.1a27.62,27.62,0,0,1-3.6-.1,4.642,4.642,0,0,1-1.7-.3,3.515,3.515,0,0,1-1.7-1.7,4.642,4.642,0,0,1-.3-1.7c0-.9-.1-1.2-.1-3.6a27.62,27.62,0,0,1,.1-3.6A4.642,4.642,0,0,1,2,3.7a3.6,3.6,0,0,1,.7-1,1.692,1.692,0,0,1,1-.7,4.642,4.642,0,0,1,1.7-.3,27.62,27.62,0,0,1,3.6-.1m0-1.6A29.573,29.573,0,0,0,5.3.1,6.179,6.179,0,0,0,3.1.5a3.918,3.918,0,0,0-1.6,1,3.918,3.918,0,0,0-1,1.6A4.56,4.56,0,0,0,.1,5.3a29.573,29.573,0,0,0-.1,3.7,29.573,29.573,0,0,0,.1,3.7,6.179,6.179,0,0,0,.4,2.2,3.918,3.918,0,0,0,1,1.6,3.918,3.918,0,0,0,1.6,1,6.179,6.179,0,0,0,2.2.4,29.573,29.573,0,0,0,3.7.1,29.573,29.573,0,0,0,3.7-.1,6.179,6.179,0,0,0,2.2-.4,4.2,4.2,0,0,0,2.6-2.6,6.179,6.179,0,0,0,.4-2.2c0-1,.1-1.3.1-3.7a29.573,29.573,0,0,0-.1-3.7,6.179,6.179,0,0,0-.4-2.2,3.918,3.918,0,0,0-1-1.6,3.918,3.918,0,0,0-1.6-1,6.179,6.179,0,0,0-2.2-.4,29.573,29.573,0,0,0-3.7-.1m0,4.4a4.53,4.53,0,0,0-4.6,4.6,4.6,4.6,0,1,0,4.6-4.6m0,7.607a2.949,2.949,0,0,1-3-3,2.949,2.949,0,0,1,3-3,2.949,2.949,0,0,1,3,3,2.949,2.949,0,0,1-3,3m4.8-8.908a1.1,1.1,0,1,0,1.1,1.1,1.111,1.111,0,0,0-1.1-1.1" fill="#fafafa" fill-rule="evenodd"/>
</svg>
