<svg xmlns="http://www.w3.org/2000/svg" width="16.903" height="16.903" viewBox="0 0 16.903 16.903">
  <path id="Icon_open-data-transfer-download" data-name="Icon open-data-transfer-download" d="M6.339,0V6.339H2.113l6.339,6.339L14.79,6.339H10.565V0ZM0,14.79V16.9H16.9V14.79Z" fill="#58595b"/>
</svg>
