<svg xmlns="http://www.w3.org/2000/svg" width="58" height="58" viewBox="0 0 58 58">
  <g id="Group_10469" data-name="Group 10469" transform="translate(-156.853 -856.613)">
    <path id="Ellipse_71" data-name="Ellipse 71" d="M29,0A29,29,0,1,1,0,29,29,29,0,0,1,29,0Z" transform="translate(156.853 856.613)" fill="none"/>
    <g id="Group_10470" data-name="Group 10470" transform="translate(-225.525 -25.634)">
      <rect id="Rectangle_2495" data-name="Rectangle 2495" width="3.391" height="1.209" rx="0.605" transform="translate(422.137 903.757) rotate(-42.789)" fill="#fff"/>
      <rect id="Rectangle_2496" data-name="Rectangle 2496" width="3.073" height="1.209" rx="0.605" transform="translate(423.167 905.154) rotate(-10.634)" fill="#fff"/>
      <rect id="Rectangle_2497" data-name="Rectangle 2497" width="3.073" height="1.209" rx="0.605" transform="translate(420.432 903.147) rotate(-74.945)" fill="#fff"/>
      <path id="Path_1425" data-name="Path 1425" d="M422.7,908.175l-11.139-8.337a.926.926,0,0,0-1.11,0l-4.729,3.539-4.542,3.4-1.916,1.435a1.616,1.616,0,0,0-.684,1.279,1.557,1.557,0,0,0,1.556,1.562h1.03a.015.015,0,0,1,.015.015v8.848a.926.926,0,0,0,.926.926h5.682V916a2.779,2.779,0,0,1,2.771-2.772h.9A2.78,2.78,0,0,1,414.23,916v4.842H419.9a.926.926,0,0,0,.926-.926v-8.848a.015.015,0,0,1,.016-.015h1.029a1.541,1.541,0,0,0,1.47-1A1.566,1.566,0,0,0,422.7,908.175Z" transform="translate(0 0)" fill="#fff"/>
      <g id="Group_10470-2" data-name="Group 10470" transform="translate(401.232 900.709)">
        <path id="Path_1426" data-name="Path 1426" d="M407.051,903.328l.608-.455v-.822a.572.572,0,0,0-.569-.57h-3.342a.571.571,0,0,0-.569.57v4.175Z" transform="translate(-403.177 -901.482)" fill="#fff"/>
      </g>
    </g>
  </g>
</svg>
