<svg id="Twitter" xmlns="http://www.w3.org/2000/svg" width="17.71" height="18" viewBox="0 0 17.71 18">
  <rect id="Rectangle_548" data-name="Rectangle 548" width="17" height="18" transform="translate(0.701)" fill="none"/>
  <path id="Path_2" data-name="Path 2" d="M43.608,16.365A10.239,10.239,0,0,0,53.939,6.034V5.542A8,8,0,0,0,55.71,3.673a8.168,8.168,0,0,1-2.066.59A3.828,3.828,0,0,0,55.218,2.3a9.025,9.025,0,0,1-2.263.886A3.514,3.514,0,0,0,50.3,2a3.7,3.7,0,0,0-3.64,3.64,1.918,1.918,0,0,0,.1.787A10.173,10.173,0,0,1,39.279,2.59a3.768,3.768,0,0,0-.492,1.869,3.909,3.909,0,0,0,1.574,3.05,3.317,3.317,0,0,1-1.673-.492h0A3.6,3.6,0,0,0,41.64,10.56a3.033,3.033,0,0,1-.984.1,1.674,1.674,0,0,1-.689-.1,3.727,3.727,0,0,0,3.444,2.558,7.429,7.429,0,0,1-4.526,1.574,2.724,2.724,0,0,1-.886-.1,9.287,9.287,0,0,0,5.608,1.771" transform="translate(-38 0.127)" fill="#fafafa" fill-rule="evenodd"/>
</svg>
